INDEX     KEY       DATA      
0         1048      2.9       hilton tonisen                
1         1049      4.7       vladislav demleitner          
2         1046      4.3       ousainou yeardsley            
3         1051      4.1       aboubakary minges             
4         1051      2.7       jaciara ploegar               
5         1044      4.5       karmele badalyants            
6         1045      3.5       dayane roffey                 
7         1055      2.4       rukhsar hansch                
8         1055      2.3       tanika lilli                  
9         1057      2.6       mercedes gelboim              
10        1058      2.9       raid de-prados                
11        1059      2.4       arnaldo adodin                
12        1060      4.8       regena mcgowan                
13        1061      2.2       keyra luchten                 
14        1046      4.2       sebastiano odorico            
15        1047      4.8       zhuying ferrario              
16        1048      2.6       joselyne strassner            
17        1065      2.1       goundo nuvo                   
18        1066      3         liubov sensenschmidt          
19        1067      4.6       isabelino humburg             
20        1068      2.3       onofra iraurgui               
21        1069      2.2       aleksi belin                  
22        1066      3.6       mikolaj tsvelikhovsky         
23        1070      2         ling chukhmantsev             
24        1056      2         sneha wiebensohn              
25        --------------------------------------------
26        1074      2.5       scotty lampertz               
27        1075      2.4       hatoumata echaveguren         
28        1075      4.8       hafsa yrundegui               
29        1052      4.4       jeromy butrago                
30        1078      2.6       kristle piskovoy              
31        1079      2.8       eliberta bernicke             
32        1080      3.8       meliton bilbasov              
33        1080      3.1       ousama yver                   
34        1078      4.2       wigberto juntermanns          
35        --------------------------------------------
36        1080      3.9       zeneyda vonguru               
37        --------------------------------------------
38        --------------------------------------------
39        1062      2.8       elorri atabiev                
40        --------------------------------------------
41        --------------------------------------------
42        --------------------------------------------
43        --------------------------------------------
44        1043      2.9       daciano kiehnlein             
45        --------------------------------------------
46        1045      3.2       josefine malho                
47        --------------------------------------------
48        --------------------------------------------
49        --------------------------------------------
50        --------------------------------------------
51        --------------------------------------------
52        --------------------------------------------
53        --------------------------------------------
54        --------------------------------------------
55        --------------------------------------------
56        --------------------------------------------
57        --------------------------------------------
58        --------------------------------------------
59        --------------------------------------------
60        --------------------------------------------
61        --------------------------------------------
62        --------------------------------------------
63        --------------------------------------------
64        --------------------------------------------
65        --------------------------------------------
66        --------------------------------------------
67        --------------------------------------------
68        --------------------------------------------
69        --------------------------------------------
70        --------------------------------------------
71        --------------------------------------------
72        --------------------------------------------
73        --------------------------------------------
74        --------------------------------------------
75        --------------------------------------------
76        --------------------------------------------
77        --------------------------------------------
78        --------------------------------------------
79        --------------------------------------------
80        --------------------------------------------
81        --------------------------------------------
82        --------------------------------------------
83        1000      4.6       dalila cosano                 
84        1001      3.3       domiciano malevsky            
85        --------------------------------------------
86        --------------------------------------------
87        --------------------------------------------
88        1005      4.3       merlene srijata               
89        --------------------------------------------
90        1007      4.8       janka andrabide               
91        1008      2.7       clea schneidmiller            
92        1008      3.8       d'assis bottger               
93        1009      4.6       naoko sprungk                 
94        1010      4.6       seila urizarbarrena           
95        --------------------------------------------
96        1013      3.9       joice heupts                  
97        1010      3.5       virgilijus valverdinho        
98        1015      4.6       monsef contero                
99        1016      2.8       elenka abakumoff              
100       1016      2.6       hayley buga                   
101       1018      3.8       chad bruhnke                  
102       1019      4.2       enea obyedkin                 
103       1020      2.3       beka kaltenegger              
104       --------------------------------------------
105       1022      3.9       elfreda bermudo               
106       --------------------------------------------
107       1024      2.5       tomasz wrahse                 
108       1025      4         begonya coanhas               
109       --------------------------------------------
110       1027      2         benito neitzel                
111       1028      2.9       roshni tabuinhas              
112       --------------------------------------------
113       1030      4.9       al genro                      
114       1031      4.3       shawna rittinghaus            
115       1032      4.9       khachatur derkaoui            
116       1033      3.3       yordanov verguizas            
117       1034      3.5       yordana moldoveanu            
118       1035      4.1       pauli zas                     
119       --------------------------------------------
120       1033      2.6       daour praxedes                
121       1037      2         irmantas raba                 
122       1039      4.4       gintare gedaliah              
123       --------------------------------------------
124       1041      4         natasha help                  
125       1041      2         mozella krausschubel          
126       1043      4.6       sarasvati ganguly             
127       1043      4.9       delfin kayeeda                
128       1045      2.3       mimoun jausoro                
129       1046      3         mora zhuravsky                
130       1046      3.4       climente mojarenko            
